"VertexLitGeneric"
{
	// Original shader: VertexLitTexture
	"$basetexture" "models/Humans/Male/Group01/joe_facemap"
	"$halflambert" 1
	"$nodecal" "1"

	// -- From here down is new stuff which will only be applied if $phong is set to 1 --
	"$phong" "1"
//	"$ambientocclusiontexture" "models/alyx/alyx_occlusion"
//	"$phongexponenttexture" "models/Alyx/alyx_head_exponent"
	"$phongboost"	"6"
	"$phongfresnelranges"	"[0.05 0.5 1]"
}
