lightmappedgeneric
{
$baseTexture "concrete/cinderwall02_dirty"
$surfaceprop concrete
$bumpmap "concrete/ssbumps/cindmap02-ssbump"
$ssbump 1
$envmap env_cubemap
$normalmapalphaenvmapmask 1
$envmaptint "[ .05 .05 .05 ]"
}
