// envmaptint_fix
"LightmappedGeneric"
{
	"$basetexture" "concrete\concretefloor033o"
	"$surfaceprop" "concrete"
	"%keywords" "c17downtown"
	"$envmap" "env_cubemap"
	"$bumpmap" "concrete\concretefloor033o_normal"
	"$normalmapalphaenvmapmask" 1
	"$envmapsaturation" 1
	"$envmapcontrast" 1
	"$envmaptint" "[ .56 .56 .56 ]"

"$detail" "detail\noise_detail_01"
	"$detailscale" "7.365"
	"$detailblendfactor" .5
	"$detailblendmode" 0
}
