"LightmappedGeneric"
{
	"$basetexture" "Concrete/concretefloor015g"
	"$surfaceprop" "concrete"
	
        "$detail" "detail\noise_detail_01"
	"$detailscale" "5.3"
	"$detailblendfactor" .5
	"$detailblendmode" 0
	"%keywords" "gear"
	"$bumpmap" "concrete\concretefloor015g_normal"

         "$envmap" "env_cubemap"
	
	"$normalmapalphaenvmapmask" 1
	"$envmapcontrast" 1
	"$envmapsaturation" 1
	"$envmaptint" "[ .10 .10 .10]"
	"$fresnelreflection" .1
}
