LightmappedGeneric
{
$baseTexture "plaster/mainstreet_plasterwall01"



"%tooltexture" "plaster/mainstreet_plasterwall01b_tooltexture"
$envmap env_cubemap


$envmaptint "[ .005 .005 .005 ]"
$surfaceprop plaster
$color2 "[ .27 .25 .25 ]"
}
