LightmappedGeneric
{
$basetexture "Plaster/plasterwall034a"
$surfaceprop plaster
$detail "detail\plaster_detail_01"
$detailscale "6.783"
$detailblendfactor .8
$detailblendmode 0
"%keywords" c17downtown
$bumpmap "plaster/plasterwall034a_normal"
}
