"LightmappedGeneric"
{
	"$basetexture" "Plaster/plasterwall048g"
	"$surfaceprop"  "plaster"
                "$bumpmap" "Plaster/ssbumps/brick_ssbump"
"$ssbump" 1
	"$detail" "detail\plaster_detail_01"
	"$detailscale" "6.783"
	"$detailblendfactor" .8
	"$detailblendmode" "0"

	"%keywords" "c17skyscraper"
}