LightmappedGeneric
{
$baseTexture "plaster/urban_plasterwall_00b"
$surfaceprop plaster


$color "[ .60 .51 .36]"
$bumpmap "plaster/urban_plasterwall_height-ssbump"
$ssbump 1
$envmap env_cubemap
$normalmapalphaenvmapmask 1
$envmaptint "[ .03 .03 .03 ]"
}
