LightmappedGeneric
{
$baseTexture "plaster/wall_grey01"
$surfaceprop sheetrock
$color "[ .75 .75 .75]"
$bumpmap "plaster/urban_plasterwall_height-ssbump"
$envmap env_cubemap
$normalmapalphaenvmapmask 1
$envmaptint "[ .03 .03 .03 ]"
$ssbump 1
}